e2e_preprocessing_cleaning_anm
…
# split mr column on comma
df <- data.frame(dev_test_combo)
df <- separate(data = df, col = mr, into = c("1", "2", "3", "4", "5", "6", "7"), sep = "],")

Warning: Expected 7 pieces. Additional pieces discarded in 2193 rows [2453,
2454, 2455, 2456, 2457, 2458, 2459, 2460, 2461, 2462, 2463, 2464, 2465, 2466,
2467, 2468, 2469, 2470, 2471, 2472, ...].

Warning: Expected 7 pieces. Missing pieces filled with `NA` in 4209 rows [1, 2,
3, 4, 5, 6, 7, 8, 9, 10, 11, 12, 13, 14, 15, 16, 17, 18, 19, 20, ...].

# separate by rows
as_tibble(df)

# A tibble: 9,365 x 8
   `1`      `2`       `3`      `4`      `5`   `6`   `7`   ref                   
   <chr>    <chr>     <chr>    <chr>    <chr> <chr> <chr> <chr>                 
 1 name[Al " area[c " famil  <NA>    <NA>  <NA>  <NA>  There is a place in t
 2 name[Al " area[c " famil  <NA>    <NA>  <NA>  <NA>  In the city centre th
 3 name[Al " area[c " famil  <NA>    <NA>  <NA>  <NA>  Alimentum is not a fa
 4 name[Al " area[c " famil  <NA>    <NA>  <NA>  <NA>  Alimentum is not a fa
 5 name[Al " area[c " famil  <NA>    <NA>  <NA>  <NA>  Alimentum is not a fa
 6 name[Al " area[c " famil  <NA>    <NA>  <NA>  <NA>  Alimentum in city cen
 7 name[Al " area[c " famil " near[ <NA>  <NA>  <NA>  Alimentum is not fami
 8 name[Al " area[c " famil " near[ <NA>  <NA>  <NA>  Near Burger King in c
 9 name[Al " area[c " famil " near[ <NA>  <NA>  <NA>  Alimentum is not fami
10 name[Al " area[c " famil " near[ <NA>  <NA>  <NA>  Alimentum is near Bur
#  with 9,355 more rows
…
